\relax 
\catcode `"\active 
\citation{kuipers}
\citation{kamalesh}
\select@language{portuguese}
\@writefile{toc}{\select@language{portuguese}}
\@writefile{lof}{\select@language{portuguese}}
\@writefile{lot}{\select@language{portuguese}}
\@writefile{toc}{\contentsline {section}{\numberline {1}Introdu\IeC {\c c}\IeC {\~a}o}{1}}
\@writefile{toc}{\contentsline {subsection}{\numberline {1.1}Objetivo do artigo}{1}}
\@writefile{toc}{\contentsline {section}{\numberline {2}Conectividade da rede}{1}}
\@writefile{toc}{\contentsline {subsection}{\numberline {2.1}Aumento de rede}{1}}
\@writefile{toc}{\contentsline {subsection}{\numberline {2.2}Caminho de prote\IeC {\c c}\IeC {\~a}o}{1}}
\citation{kamalesh}
\citation{tiago_git_hub}
\@writefile{toc}{\contentsline {section}{\numberline {3}M\IeC {\'e}todo do Grafo Bipartido}{2}}
\@writefile{loa}{\contentsline {algorithm}{\numberline {1}{\ignorespaces Constru\IeC {\c c}\IeC {\~a}o do grafo}}{2}}
\@writefile{toc}{\contentsline {subsection}{\numberline {3.1}Ilustra\IeC {\c c}\IeC {\~a}o do algoritmo}{2}}
\@writefile{lof}{\contentsline {figure}{\numberline {1}{\ignorespaces N\IeC {\'o}s da rede}}{2}}
\@writefile{lof}{\contentsline {figure}{\numberline {2}{\ignorespaces Grafo particionado}}{2}}
\@writefile{lof}{\contentsline {figure}{\numberline {3}{\ignorespaces Grafo bipartido}}{2}}
\citation{graph_viz}
\bibcite{kopka}{1}
\bibcite{goldbarg}{2}
\bibcite{kuipers}{3}
\bibcite{kamalesh}{4}
\bibcite{tiago_git_hub}{5}
\bibcite{graph_viz}{6}
\bibcite{graph_tool}{7}
\@writefile{lof}{\contentsline {figure}{\numberline {4}{\ignorespaces C\IeC {\'o}digo principal}}{3}}
\@writefile{lof}{\contentsline {figure}{\numberline {5}{\ignorespaces Matriz de custo associado}}{3}}
\@writefile{toc}{\contentsline {section}{\numberline {4}Resultados: Implementa\IeC {\c c}\IeC {\~a}o do M\IeC {\'e}todo do Grafo Bipartido}{3}}
\@writefile{toc}{\contentsline {section}{\numberline {5}Conclus\IeC {\~a}o}{3}}
\@writefile{lof}{\contentsline {figure}{\numberline {6}{\ignorespaces Arquivo dot gerado}}{3}}
\@writefile{toc}{\contentsline {section}{Refer\^encias}{3}}
